{
    "family": "laravel-forum",
    "containerDefinitions": [
        {
            "image": "%REPOSITORY_URI%:v_%BUILD_NUMBER%",
            "name": "laravel-forum",
            "cpu": 10,
            "memory": 256,
            "essential": true,
            "portMappings": [
                {
                    "containerPort": 80,
                    "hostPort": 8000
                }
            ]
        }
    ]
}
